{
    "name": "SDOSExample",
    "references": [
        "GUID:93a7d60453f846e459a3859fb23c9907"
    ],
    "includePlatforms": [],
    "excludePlatforms": [],
    "allowUnsafeCode": false,
    "overrideReferences": false,
    "precompiledReferences": [],
    "autoReferenced": true,
    "defineConstraints": [],
    "versionDefines": [],
    "noEngineReferences": false
}